*Card_Number,Transaction_Date,Bill_Amount,Vendor_Name
978522000002304,2012-05-17,000000000003591,Furzier Tabletted Polymorphic Stringendo HeurAgriculturally #2396508 Fetial Fauvisms      
978522000002304,2012-05-16,000000000000933,Relying Q Odysseys Enjoyed Itshall           Digitizations #379905939 510-8522504 Imparted
978522000002304,2012-05-17,000000000004100,Drats Impreses Tout Hydrostatic Nacreous     589157114 228996205 58732 Vamp               
